%YAML 1.1
%TAG !u! tag:unity3d.com,2011:
--- !u!114 &-9205596800527171910
MonoBehaviour:
  m_ObjectHideFlags: 3
  m_CorrespondingSourceObject: {fileID: 0}
  m_PrefabInstance: {fileID: 0}
  m_PrefabAsset: {fileID: 0}
  m_GameObject: {fileID: 0}
  m_Enabled: 1
  m_EditorHideFlags: 0
  m_Script: {fileID: 11500000, guid: 899c54efeace73346a0a16faa3afe726, type: 3}
  m_Name: Vignette
  m_EditorClassIdentifier: 
  active: 1
  m_AdvancedMode: 0
  color:
    m_OverrideState: 1
    m_Value: {r: 0, g: 0, b: 0, a: 1}
    hdr: 0
    showAlpha: 0
    showEyeDropper: 1
  center:
    m_OverrideState: 1
    m_Value: {x: 0.5, y: 0.5}
  intensity:
    m_OverrideState: 1
    m_Value: 0.31
    min: 0
    max: 1
  smoothness:
    m_OverrideState: 1
    m_Value: 0.906
    min: 0.01
    max: 1
  rounded:
    m_OverrideState: 1
    m_Value: 0
--- !u!114 &-8949980646210309470
MonoBehaviour:
  m_ObjectHideFlags: 3
  m_CorrespondingSourceObject: {fileID: 0}
  m_PrefabInstance: {fileID: 0}
  m_PrefabAsset: {fileID: 0}
  m_GameObject: {fileID: 0}
  m_Enabled: 1
  m_EditorHideFlags: 0
  m_Script: {fileID: 11500000, guid: 29fa0085f50d5e54f8144f766051a691, type: 3}
  m_Name: FilmGrain
  m_EditorClassIdentifier: 
  active: 1
  m_AdvancedMode: 0
  type:
    m_OverrideState: 1
    m_Value: 9
  intensity:
    m_OverrideState: 1
    m_Value: 0.593
    min: 0
    max: 1
  response:
    m_OverrideState: 1
    m_Value: 0.806
    min: 0
    max: 1
  texture:
    m_OverrideState: 0
    m_Value: {fileID: 0}
--- !u!114 &-5118512826676606948
MonoBehaviour:
  m_ObjectHideFlags: 3
  m_CorrespondingSourceObject: {fileID: 0}
  m_PrefabInstance: {fileID: 0}
  m_PrefabAsset: {fileID: 0}
  m_GameObject: {fileID: 0}
  m_Enabled: 1
  m_EditorHideFlags: 0
  m_Script: {fileID: 11500000, guid: c5e1dc532bcb41949b58bc4f2abfbb7e, type: 3}
  m_Name: LensDistortion
  m_EditorClassIdentifier: 
  active: 1
  m_AdvancedMode: 0
  intensity:
    m_OverrideState: 1
    m_Value: 0.31
    min: -1
    max: 1
  xMultiplier:
    m_OverrideState: 0
    m_Value: 1
    min: 0
    max: 1
  yMultiplier:
    m_OverrideState: 0
    m_Value: 1
    min: 0
    max: 1
  center:
    m_OverrideState: 0
    m_Value: {x: 0.5, y: 0.5}
  scale:
    m_OverrideState: 0
    m_Value: 1
    min: 0.01
    max: 5
--- !u!114 &11400000
MonoBehaviour:
  m_ObjectHideFlags: 0
  m_CorrespondingSourceObject: {fileID: 0}
  m_PrefabInstance: {fileID: 0}
  m_PrefabAsset: {fileID: 0}
  m_GameObject: {fileID: 0}
  m_Enabled: 1
  m_EditorHideFlags: 0
  m_Script: {fileID: 11500000, guid: d7fd9488000d3734a9e00ee676215985, type: 3}
  m_Name: Global Volume Profile
  m_EditorClassIdentifier: 
  components:
  - {fileID: 8556614877332855971}
  - {fileID: 8975535277265598699}
  - {fileID: 8941217093753482203}
  - {fileID: 8625772508647581821}
  - {fileID: 5910131110304169615}
  - {fileID: -5118512826676606948}
  - {fileID: -9205596800527171910}
  - {fileID: -8949980646210309470}
--- !u!114 &5910131110304169615
MonoBehaviour:
  m_ObjectHideFlags: 3
  m_CorrespondingSourceObject: {fileID: 0}
  m_PrefabInstance: {fileID: 0}
  m_PrefabAsset: {fileID: 0}
  m_GameObject: {fileID: 0}
  m_Enabled: 1
  m_EditorHideFlags: 0
  m_Script: {fileID: 11500000, guid: 5485954d14dfb9a4c8ead8edb0ded5b1, type: 3}
  m_Name: LiftGammaGain
  m_EditorClassIdentifier: 
  active: 1
  m_AdvancedMode: 0
  lift:
    m_OverrideState: 0
    m_Value: {x: 0.94692796, y: 0.96580404, z: 1, w: 0}
  gamma:
    m_OverrideState: 0
    m_Value: {x: 0.9545619, y: 1, z: 0.9499247, w: -0.07670183}
  gain:
    m_OverrideState: 1
    m_Value: {x: 0.7908091, y: 0.80367386, z: 1, w: 0.019175457}
--- !u!114 &8556614877332855971
MonoBehaviour:
  m_ObjectHideFlags: 3
  m_CorrespondingSourceObject: {fileID: 0}
  m_PrefabInstance: {fileID: 0}
  m_PrefabAsset: {fileID: 0}
  m_GameObject: {fileID: 0}
  m_Enabled: 1
  m_EditorHideFlags: 0
  m_Script: {fileID: 11500000, guid: 0b2db86121404754db890f4c8dfe81b2, type: 3}
  m_Name: Bloom
  m_EditorClassIdentifier: 
  active: 1
  m_AdvancedMode: 0
  threshold:
    m_OverrideState: 1
    m_Value: 1
    min: 0
  intensity:
    m_OverrideState: 1
    m_Value: 4
    min: 0
  scatter:
    m_OverrideState: 1
    m_Value: 0.22
    min: 0
    max: 1
  clamp:
    m_OverrideState: 0
    m_Value: 65472
    min: 0
  tint:
    m_OverrideState: 0
    m_Value: {r: 1, g: 1, b: 1, a: 1}
    hdr: 0
    showAlpha: 0
    showEyeDropper: 1
  highQualityFiltering:
    m_OverrideState: 0
    m_Value: 0
  skipIterations:
    m_OverrideState: 0
    m_Value: 5
    min: 0
    max: 16
  dirtTexture:
    m_OverrideState: 0
    m_Value: {fileID: 0}
  dirtIntensity:
    m_OverrideState: 0
    m_Value: 10
    min: 0
--- !u!114 &8625772508647581821
MonoBehaviour:
  m_ObjectHideFlags: 3
  m_CorrespondingSourceObject: {fileID: 0}
  m_PrefabInstance: {fileID: 0}
  m_PrefabAsset: {fileID: 0}
  m_GameObject: {fileID: 0}
  m_Enabled: 1
  m_EditorHideFlags: 0
  m_Script: {fileID: 11500000, guid: c01700fd266d6914ababb731e09af2eb, type: 3}
  m_Name: DepthOfField
  m_EditorClassIdentifier: 
  active: 1
  m_AdvancedMode: 0
  mode:
    m_OverrideState: 1
    m_Value: 2
  gaussianStart:
    m_OverrideState: 0
    m_Value: 10
    min: 0
  gaussianEnd:
    m_OverrideState: 0
    m_Value: 30
    min: 0
  gaussianMaxRadius:
    m_OverrideState: 0
    m_Value: 1
    min: 0.5
    max: 1.5
  highQualitySampling:
    m_OverrideState: 0
    m_Value: 0
  focusDistance:
    m_OverrideState: 1
    m_Value: 16.59
    min: 0.1
  aperture:
    m_OverrideState: 1
    m_Value: 6.6
    min: 1
    max: 32
  focalLength:
    m_OverrideState: 1
    m_Value: 127
    min: 1
    max: 300
  bladeCount:
    m_OverrideState: 0
    m_Value: 3
    min: 3
    max: 9
  bladeCurvature:
    m_OverrideState: 0
    m_Value: 1
    min: 0
    max: 1
  bladeRotation:
    m_OverrideState: 0
    m_Value: 0
    min: -180
    max: 180
--- !u!114 &8941217093753482203
MonoBehaviour:
  m_ObjectHideFlags: 3
  m_CorrespondingSourceObject: {fileID: 0}
  m_PrefabInstance: {fileID: 0}
  m_PrefabAsset: {fileID: 0}
  m_GameObject: {fileID: 0}
  m_Enabled: 1
  m_EditorHideFlags: 0
  m_Script: {fileID: 11500000, guid: 81180773991d8724ab7f2d216912b564, type: 3}
  m_Name: ChromaticAberration
  m_EditorClassIdentifier: 
  active: 1
  m_AdvancedMode: 0
  intensity:
    m_OverrideState: 1
    m_Value: 0.835
    min: 0
    max: 1
--- !u!114 &8975535277265598699
MonoBehaviour:
  m_ObjectHideFlags: 3
  m_CorrespondingSourceObject: {fileID: 0}
  m_PrefabInstance: {fileID: 0}
  m_PrefabAsset: {fileID: 0}
  m_GameObject: {fileID: 0}
  m_Enabled: 1
  m_EditorHideFlags: 0
  m_Script: {fileID: 11500000, guid: 221518ef91623a7438a71fef23660601, type: 3}
  m_Name: WhiteBalance
  m_EditorClassIdentifier: 
  active: 1
  m_AdvancedMode: 0
  temperature:
    m_OverrideState: 1
    m_Value: -20
    min: -100
    max: 100
  tint:
    m_OverrideState: 1
    m_Value: 31
    min: -100
    max: 100
