%YAML 1.1
%TAG !u! tag:unity3d.com,2011:
--- !u!78 &1
TagManager:
  serializedVersion: 2
  tags:
  - EnemyBorder
  - Ground
  - Hand
  - Enemy
  layers:
  - Default
  - TransparentFX
  - Ignore Raycast
  - 
  - Water
  - UI
  - Ground
  - 
  - 
  - 
  - 
  - 
  - 
  - 
  - 
  - 
  - 
  - 
  - 
  - 
  - 
  - 
  - 
  - 
  - 
  - 
  - 
  - 
  - 
  - 
  - 
  - 
  m_SortingLayers:
  - name: Sky
    uniqueID: 1254795943
    locked: 0
  - name: Default
    uniqueID: 0
    locked: 0
  - name: Enemy
    uniqueID: 1112112007
    locked: 0
  - name: Player
    uniqueID: 1918308179
    locked: 0
