%YAML 1.1
%TAG !u! tag:unity3d.com,2011:
--- !u!1 &1900606493709161418
GameObject:
  m_ObjectHideFlags: 0
  m_CorrespondingSourceObject: {fileID: 0}
  m_PrefabInstance: {fileID: 0}
  m_PrefabAsset: {fileID: 0}
  serializedVersion: 6
  m_Component:
  - component: {fileID: 7166896547220061433}
  - component: {fileID: 6624895565013129444}
  - component: {fileID: 3450255628383600214}
  - component: {fileID: 4947944134152835989}
  - component: {fileID: 4038936572427645123}
  m_Layer: 0
  m_Name: EnemyBullet
  m_TagString: Enemy
  m_Icon: {fileID: 0}
  m_NavMeshLayer: 0
  m_StaticEditorFlags: 0
  m_IsActive: 1
--- !u!4 &7166896547220061433
Transform:
  m_ObjectHideFlags: 0
  m_CorrespondingSourceObject: {fileID: 0}
  m_PrefabInstance: {fileID: 0}
  m_PrefabAsset: {fileID: 0}
  m_GameObject: {fileID: 1900606493709161418}
  m_LocalRotation: {x: -0, y: -0, z: -0, w: 1}
  m_LocalPosition: {x: -1.1099997, y: 0.50931096, z: -20.09897}
  m_LocalScale: {x: 2.2301, y: 2.2301, z: 2.2301}
  m_Children:
  - {fileID: 9217017575248511807}
  m_Father: {fileID: 0}
  m_RootOrder: 0
  m_LocalEulerAnglesHint: {x: 0, y: 0, z: 0}
--- !u!212 &6624895565013129444
SpriteRenderer:
  m_ObjectHideFlags: 0
  m_CorrespondingSourceObject: {fileID: 0}
  m_PrefabInstance: {fileID: 0}
  m_PrefabAsset: {fileID: 0}
  m_GameObject: {fileID: 1900606493709161418}
  m_Enabled: 1
  m_CastShadows: 0
  m_ReceiveShadows: 0
  m_DynamicOccludee: 1
  m_MotionVectors: 1
  m_LightProbeUsage: 1
  m_ReflectionProbeUsage: 1
  m_RayTracingMode: 0
  m_RayTraceProcedural: 0
  m_RenderingLayerMask: 1
  m_RendererPriority: 0
  m_Materials:
  - {fileID: 2100000, guid: a97c105638bdf8b4a8650670310a4cd3, type: 2}
  m_StaticBatchInfo:
    firstSubMesh: 0
    subMeshCount: 0
  m_StaticBatchRoot: {fileID: 0}
  m_ProbeAnchor: {fileID: 0}
  m_LightProbeVolumeOverride: {fileID: 0}
  m_ScaleInLightmap: 1
  m_ReceiveGI: 1
  m_PreserveUVs: 0
  m_IgnoreNormalsForChartDetection: 0
  m_ImportantGI: 0
  m_StitchLightmapSeams: 1
  m_SelectedEditorRenderState: 0
  m_MinimumChartSize: 4
  m_AutoUVMaxDistance: 0.5
  m_AutoUVMaxAngle: 89
  m_LightmapParameters: {fileID: 0}
  m_SortingLayerID: 0
  m_SortingLayer: 0
  m_SortingOrder: 0
  m_Sprite: {fileID: 0}
  m_Color: {r: 0.7735849, g: 0.5457622, b: 0.22258809, a: 1}
  m_FlipX: 0
  m_FlipY: 0
  m_DrawMode: 0
  m_Size: {x: 1, y: 1}
  m_AdaptiveModeThreshold: 0.5
  m_SpriteTileMode: 0
  m_WasSpriteAssigned: 0
  m_MaskInteraction: 0
  m_SpriteSortPoint: 0
--- !u!58 &3450255628383600214
CircleCollider2D:
  m_ObjectHideFlags: 0
  m_CorrespondingSourceObject: {fileID: 0}
  m_PrefabInstance: {fileID: 0}
  m_PrefabAsset: {fileID: 0}
  m_GameObject: {fileID: 1900606493709161418}
  m_Enabled: 1
  m_Density: 1
  m_Material: {fileID: 0}
  m_IsTrigger: 1
  m_UsedByEffector: 0
  m_UsedByComposite: 0
  m_Offset: {x: 0, y: 0}
  serializedVersion: 2
  m_Radius: 0.16
--- !u!50 &4947944134152835989
Rigidbody2D:
  serializedVersion: 4
  m_ObjectHideFlags: 0
  m_CorrespondingSourceObject: {fileID: 0}
  m_PrefabInstance: {fileID: 0}
  m_PrefabAsset: {fileID: 0}
  m_GameObject: {fileID: 1900606493709161418}
  m_BodyType: 0
  m_Simulated: 1
  m_UseFullKinematicContacts: 0
  m_UseAutoMass: 0
  m_Mass: 1
  m_LinearDrag: 0
  m_AngularDrag: 0.05
  m_GravityScale: 0
  m_Material: {fileID: 0}
  m_Interpolate: 0
  m_SleepingMode: 1
  m_CollisionDetection: 0
  m_Constraints: 0
--- !u!114 &4038936572427645123
MonoBehaviour:
  m_ObjectHideFlags: 0
  m_CorrespondingSourceObject: {fileID: 0}
  m_PrefabInstance: {fileID: 0}
  m_PrefabAsset: {fileID: 0}
  m_GameObject: {fileID: 1900606493709161418}
  m_Enabled: 1
  m_EditorHideFlags: 0
  m_Script: {fileID: 11500000, guid: 0d4abc71b7c27c64192ca173b441c25c, type: 3}
  m_Name: 
  m_EditorClassIdentifier: 
--- !u!1001 &4002209432655426908
PrefabInstance:
  m_ObjectHideFlags: 0
  serializedVersion: 2
  m_Modification:
    m_TransformParent: {fileID: 7166896547220061433}
    m_Modifications:
    - target: {fileID: 5216251252746008161, guid: 5ddd56d8951a672468b780d117c5e0ac, type: 3}
      propertyPath: m_Name
      value: Desert_Enemy
      objectReference: {fileID: 0}
    - target: {fileID: 5216251252746008163, guid: 5ddd56d8951a672468b780d117c5e0ac, type: 3}
      propertyPath: m_RootOrder
      value: 0
      objectReference: {fileID: 0}
    - target: {fileID: 5216251252746008163, guid: 5ddd56d8951a672468b780d117c5e0ac, type: 3}
      propertyPath: m_LocalScale.x
      value: 1.8941303
      objectReference: {fileID: 0}
    - target: {fileID: 5216251252746008163, guid: 5ddd56d8951a672468b780d117c5e0ac, type: 3}
      propertyPath: m_LocalScale.y
      value: 1.8941303
      objectReference: {fileID: 0}
    - target: {fileID: 5216251252746008163, guid: 5ddd56d8951a672468b780d117c5e0ac, type: 3}
      propertyPath: m_LocalScale.z
      value: 1.8941303
      objectReference: {fileID: 0}
    - target: {fileID: 5216251252746008163, guid: 5ddd56d8951a672468b780d117c5e0ac, type: 3}
      propertyPath: m_LocalPosition.x
      value: 0
      objectReference: {fileID: 0}
    - target: {fileID: 5216251252746008163, guid: 5ddd56d8951a672468b780d117c5e0ac, type: 3}
      propertyPath: m_LocalPosition.y
      value: 0
      objectReference: {fileID: 0}
    - target: {fileID: 5216251252746008163, guid: 5ddd56d8951a672468b780d117c5e0ac, type: 3}
      propertyPath: m_LocalPosition.z
      value: 0
      objectReference: {fileID: 0}
    - target: {fileID: 5216251252746008163, guid: 5ddd56d8951a672468b780d117c5e0ac, type: 3}
      propertyPath: m_LocalRotation.w
      value: 1
      objectReference: {fileID: 0}
    - target: {fileID: 5216251252746008163, guid: 5ddd56d8951a672468b780d117c5e0ac, type: 3}
      propertyPath: m_LocalRotation.x
      value: -0
      objectReference: {fileID: 0}
    - target: {fileID: 5216251252746008163, guid: 5ddd56d8951a672468b780d117c5e0ac, type: 3}
      propertyPath: m_LocalRotation.y
      value: -0
      objectReference: {fileID: 0}
    - target: {fileID: 5216251252746008163, guid: 5ddd56d8951a672468b780d117c5e0ac, type: 3}
      propertyPath: m_LocalRotation.z
      value: -0
      objectReference: {fileID: 0}
    - target: {fileID: 5216251252746008163, guid: 5ddd56d8951a672468b780d117c5e0ac, type: 3}
      propertyPath: m_LocalEulerAnglesHint.x
      value: 0
      objectReference: {fileID: 0}
    - target: {fileID: 5216251252746008163, guid: 5ddd56d8951a672468b780d117c5e0ac, type: 3}
      propertyPath: m_LocalEulerAnglesHint.y
      value: 0
      objectReference: {fileID: 0}
    - target: {fileID: 5216251252746008163, guid: 5ddd56d8951a672468b780d117c5e0ac, type: 3}
      propertyPath: m_LocalEulerAnglesHint.z
      value: 0
      objectReference: {fileID: 0}
    - target: {fileID: 5216251253822956345, guid: 5ddd56d8951a672468b780d117c5e0ac, type: 3}
      propertyPath: InitialModule.startColor.maxGradient.ctime1
      value: 4626
      objectReference: {fileID: 0}
    - target: {fileID: 5216251253822956345, guid: 5ddd56d8951a672468b780d117c5e0ac, type: 3}
      propertyPath: InitialModule.startColor.maxGradient.ctime2
      value: 9059
      objectReference: {fileID: 0}
    - target: {fileID: 5216251253822956345, guid: 5ddd56d8951a672468b780d117c5e0ac, type: 3}
      propertyPath: InitialModule.startColor.maxGradient.ctime3
      value: 26407
      objectReference: {fileID: 0}
    - target: {fileID: 5216251253822956345, guid: 5ddd56d8951a672468b780d117c5e0ac, type: 3}
      propertyPath: InitialModule.startColor.maxGradient.ctime4
      value: 57632
      objectReference: {fileID: 0}
    - target: {fileID: 5216251253822956345, guid: 5ddd56d8951a672468b780d117c5e0ac, type: 3}
      propertyPath: InitialModule.startColor.maxGradient.ctime5
      value: 65535
      objectReference: {fileID: 0}
    - target: {fileID: 5216251253822956345, guid: 5ddd56d8951a672468b780d117c5e0ac, type: 3}
      propertyPath: InitialModule.startColor.maxGradient.key6.b
      value: 0.7169812
      objectReference: {fileID: 0}
    - target: {fileID: 5216251253822956345, guid: 5ddd56d8951a672468b780d117c5e0ac, type: 3}
      propertyPath: InitialModule.startColor.maxGradient.key6.g
      value: 0.7169812
      objectReference: {fileID: 0}
    - target: {fileID: 5216251253822956345, guid: 5ddd56d8951a672468b780d117c5e0ac, type: 3}
      propertyPath: InitialModule.startColor.maxGradient.key6.r
      value: 0.7169812
      objectReference: {fileID: 0}
    - target: {fileID: 5216251253822956345, guid: 5ddd56d8951a672468b780d117c5e0ac, type: 3}
      propertyPath: InitialModule.startColor.maxGradient.m_NumColorKeys
      value: 6
      objectReference: {fileID: 0}
    m_RemovedComponents: []
  m_SourcePrefab: {fileID: 100100000, guid: 5ddd56d8951a672468b780d117c5e0ac, type: 3}
--- !u!4 &9217017575248511807 stripped
Transform:
  m_CorrespondingSourceObject: {fileID: 5216251252746008163, guid: 5ddd56d8951a672468b780d117c5e0ac, type: 3}
  m_PrefabInstance: {fileID: 4002209432655426908}
  m_PrefabAsset: {fileID: 0}
